aascenzo@its.jnj.com,,,,0
abravo5@its.jnj.com,,,,0
acarraby@its.jnj.com,,,,10
aciric@its.jnj.com,,,,10
acolon19@its.jnj.com,,,,0
acordery@its.jnj.com,,,,0
adandan@its.jnj.com,,,,0
adeboer1@its.jnj.com,,,,0
afillio@its.jnj.com,,,,0
aflemin6@its.jnj.com,,,,0
agianni2@its.jnj.com,,,,0
agraise@its.jnj.com,,,,0
agreensp@its.jnj.com,,,,0
aguerr18@its.jnj.com,,,,0
agundolf@its.jnj.com,,,,0
ahaberla@its.jnj.com,,,,0
aharber@its.jnj.com,,,,0
ahead3@its.jnj.com,,,,10
ajimen51@its.jnj.com,,,,0
akloser@its.jnj.com,,,,0
aknoblac@its.jnj.com,,,,0
alewin1@its.jnj.com,,,,10
amaleno@its.jnj.com,,,,0
amccar18@its.jnj.com,,,,0
aminecc1@its.jnj.com,,,,0
amorle@its.jnj.com,,,,0
amorse1@its.jnj.com,,,,0
Amy.Rankine@inventivhealth.com,,,,0
Angela.Dancy@inventivhealth.com,,,,0
Anna.Romeo@inventivhealth.com,,,,0
aospital@its.jnj.com,,,,0
apate19@its.jnj.com,,,,0
aperkin8@its.jnj.com,,,,0
apucci@its.jnj.com,,,,0
arice12@its.jnj.com,,,,0
arooney1@its.jnj.com,,,,0
aschulte@its.jnj.com,,,,0
asegars@its.jnj.com,,,,0
ashalami@its.jnj.com,,,,0
astover@its.jnj.com,,,,0
atemaat1@its.jnj.com,,,,0
avillal2@its.jnj.com,,,,0
awalsh20@its.jnj.com,,,,10
awang25@its.jnj.com,,,,10
awhite27@its.jnj.com,,,,0
awilder2@its.jnj.com,,,,0
awillia1@its.jnj.com,,,,0
barmknec@its.jnj.com,,,,0
bbauder@its.jnj.com,,,,0
bbischof@its.jnj.com,,,,20
bboelens@its.jnj.com,,,,0
bbuersta@its.jnj.com,,,,0
bdahedl@its.jnj.com,,,,0
bdragini@its.jnj.com,,,,0
bdrayto2@its.jnj.com,,,,0
behring1@its.jnj.com,,,,0
bfaucet1@its.jnj.com,,,,0
bfergus4@its.jnj.com,,,,20
bhamilt5@its.jnj.com,,,,0
bhuerta@its.jnj.com,,,,0
bkane2@its.jnj.com,,,,0
bkatz0@its.jnj.com,,,,0
bkramer1@its.jnj.com,,,,0
bkuiken@its.jnj.com,,,,0
blewis19@its.jnj.com,,,,0
bmarti99@its.jnj.com,,,,0
bmccloud@its.jnj.com,,,,20
bmiddle2@its.jnj.com,,,,0
bporter6@its.jnj.com,,,,0
bquinn2@its.jnj.com,,,,0
brussell@its.jnj.com,,,,0
bshelto1@its.jnj.com,,,,0
bsmith32@its.jnj.com,,,,0
bstewa19@its.jnj.com,,,,0
btaft@its.jnj.com,,,,10
bvandiv2@its.jnj.com,,,,0
bwilli32@its.jnj.com,,,,20
caberra@its.jnj.com,,,,20
Capri.Pavlich@inventivhealth.com,,,,0
carolyn.b.jones@inventivhealth.com,,,,0
cauger3@its.jnj.com,,,,20
cbecker@its.jnj.com,,,,0
cbodzick@its.jnj.com,,,,0
cbryan17@its.jnj.com,,,,0
ccarpe10@its.jnj.com,,,,0
ccasper@its.jnj.com,,,,0
cchamber@its.jnj.com,,,,0
cchrzan1@its.jnj.com,,,,0
ccorbin@its.jnj.com,,,,0
cdorsey@its.jnj.com,,,,0
cdortrai@its.jnj.com,,,,0
cduncan5@its.jnj.com,,,,0
cdyer6@its.jnj.com,,,,0
cellis8@its.jnj.com,,,,0
cflanag6@its.jnj.com,,,,0
cgrezlak@its.jnj.com,,,,0
cguiton@its.jnj.com,,,,0
chendri1@its.jnj.com,,,,0
choover1@its.jnj.com,,,,0
christy.noble@xcenda.com,,,,0
chwang1@its.jnj.com,,,,0
ckao5@its.jnj.com,,,,20
CLandhol@its.jnj.com,,,,0
clewis35@its.jnj.com,,,,0
cmansfi1@its.jnj.com,,,,0
cmarqu18@its.jnj.com,,,,0
cmceach1@its.jnj.com,,,,0
cmcinto9@its.jnj.com,,,,20
cmille35@its.jnj.com,,,,0
cmoore45@its.jnj.com,,,,0
cnelso12@its.jnj.com,,,,10
cowen3@its.jnj.com,,,,20
cpace1@its.jnj.com,,,,0
cpavis@its.jnj.com,,,,0
cpesapan@its.jnj.com,,,,0
cricha27@its.jnj.com,,,,0
crichar6@its.jnj.com,,,,0
criotto@its.jnj.com,,,,0
crobers1@its.jnj.com,,,,0
croger19@its.jnj.com,,,,0
crogers8@its.jnj.com,,,,10
cscarle@its.jnj.com,,,,0
cschara@its.jnj.com,,,,0
cshen27@its.jnj.com,,,,0
csmith54@its.jnj.com,,,,0
cstorey@its.jnj.com,,,,0
cthoma71@its.jnj.com,,,,0
cthomp19@its.jnj.com,,,,0
ctorre11@its.jnj.com,,,,0
ctouma@its.jnj.com,,,,0
cwatkin9@its.jnj.com,,,,0
cwestbr@its.jnj.com,,,,0
cwrigh23@its.jnj.com,,,,0
dabbott7@its.jnj.com,,,,0
dander16@its.jnj.com,,,,0
dandre@its.jnj.com,,,,0
daquino@its.jnj.com,,,,0
dbleckle@its.jnj.com,,,,0
ddenucci@its.jnj.com,,,,0
ddierks@its.jnj.com,,,,0
ddillon1@its.jnj.com,,,,0
ddorante@its.jnj.com,,,,0
DeAndrea.Cooper@inventivhealth.com,,,,0
delliott@its.jnj.com,,,,0
dfadley@its.jnj.com,,,,0
dgaskins@its.jnj.com,,,,0
dgeorge4@its.jnj.com,,,,0
dgray23@its.jnj.com,,,,20
dgrund1@its.jnj.com,,,,0
dguyer2@its.jnj.com,,,,20
dhannah5@its.jnj.com,,,,0
dhanson@its.jnj.com,,,,0
dheming@its.jnj.com,,,,0
dhendric@its.jnj.com,,,,0
dhohm@its.jnj.com,,,,0
dilskens@its.jnj.com,,,,10
djacobst@ITS.JNJ.com,,,,0
djebara@its.jnj.com,,,,0
dkane7@its.jnj.com,,,,0
dkozinsk@its.jnj.com,,,,0
dlandis4@its.jnj.com,,,,0
dlehman2@its.jnj.com,,,,0
dmathis1@its.jnj.com,,,,0
dmille21@its.jnj.com,,,,0
dmineo@its.jnj.com,,,,0
dpietrz2@its.jnj.com,,,,0
drockwel@its.jnj.com,,,,0
dschott@its.jnj.com,,,,0
dscott7@its.jnj.com,,,,0
dsiskin@its.jnj.com,,,,0
dtorgers@its.jnj.com,,,,0
ebatessh@its.jnj.com,,,,20
ebixby@its.jnj.com,,,,20
ebragg@its.jnj.com,,,,0
ecallah3@its.jnj.com,,,,0
edye1@its.jnj.com,,,,20
egay@its.jnj.com,,,,0
ejackso1@its.jnj.com,,,,0
ekiley@its.jnj.com,,,,0
ekreulst@its.jnj.com,,,,0
emadera1@its.jnj.com,,,,0
ematagra@its.jnj.com,,,,0
eparson5@its.jnj.com,,,,0
equeener@its.jnj.com,,,,0
eroskopf@its.jnj.com,,,,0
eschaff1@its.jnj.com,,,,0
ewashi@its.jnj.com,,,,0
ewhittem@its.jnj.com,,,,0
fdilling@its.jnj.com,,,,20
Floria.Kiscellus@inventivhealth.com,,,,10
FMingouo@ITS.JNJ.com,,,,0
fpatszal@its.jnj.com,,,,0
fryan8@its.jnj.com,,,,20
fterry@its.jnj.com,,,,0
gfields1@its.jnj.com,,,,0
ghogan10@its.jnj.com,,,,0
gkriege@its.jnj.com,,,,0
glamping@its.jnj.com,,,,0
gleone6@its.jnj.com,,,,20
glopez9@its.jnj.com,,,,0
gmitch1@its.jnj.com,,,,0
gwatson5@its.jnj.com,,,,0
gwoods2@its.jnj.com,,,,0
hbertani@its.jnj.com,,,,0
hboudre@its.jnj.com,,,,0
hcampb10@its.jnj.com,,,,0
hding20@its.jnj.com,,,,20
hfogelbe@its.jnj.com,,,,0
hhinkle1@its.jnj.com,,,,0
hhunt1@its.jnj.com,,,,0
hjeffcoa@its.jnj.com,,,,0
hkaramis@its.jnj.com,,,,0
hreid1@its.jnj.com,,,,0
hsmith35@its.jnj.com,,,,0
hwalls@its.jnj.com,,,,0
hwoodard@its.jnj.com,,,,0
ilamb@its.jnj.com,,,,0
IRader@its.jnj.com,,,,0
jbardon3@its.jnj.com,,,,10
jbeck12@its.jnj.com,,,,0
jbillin2@its.jnj.com,,,,0
jbodnar@its.jnj.com,,,,0
jbridge2@its.jnj.com,,,,0
jbrione2@its.jnj.com,,,,10
jbruni@its.jnj.com,,,,20
jburns@its.jnj.com,,,,0
jcarey3@its.jnj.com,,,,20
jcaske9@its.jnj.com,,,,0
jcaspary@its.jnj.com,,,,0
jcasper@its.jnj.com,,,,0
jcassada@its.jnj.com,,,,10
jcherry6@its.jnj.com,,,,0
jconnol2@its.jnj.com,,,,0
jcorian1@its.jnj.com,,,,0
jdahlqui@its.jnj.com,,,,0
jdeitche@its.jnj.com,,,,0
jdye@its.jnj.com,,,,0
jericss@its.jnj.com,,,,0
jforthau@its.jnj.com,,,,0
jfuent@its.jnj.com,,,,0
jgennar@its.jnj.com,,,,0
jgoulet@its.jnj.com,,,,0
jgyorfi@its.jnj.com,,,,10
jhedberg@its.jnj.com,,,,0
jhern246@its.jnj.com,,,,10
jhnat@its.jnj.com,,,,0
jhodgesi@its.jnj.com,,,,0
JJornlin@its.jnj.com,,,,0
jkoch79@its.jnj.com,,,,0
jlafran2@its.jnj.com,,,,0
jlarkin6@its.jnj.com,,,,0
jlawre22@its.jnj.com,,,,0
jlawre25@its.jnj.com,,,,0
jlenart@its.jnj.com,,,,0
jlilly4@its.jnj.com,,,,0
jlisick3@its.jnj.com,,,,0
jlist2@its.jnj.com,,,,0
jloch1@its.jnj.com,,,,0
jlotz1@its.jnj.com,,,,0
jmaltz@its.jnj.com,,,,0
jmansara@its.jnj.com,,,,0
jmckenne@its.jnj.com,,,,0
jmeager@its.jnj.com,,,,0
jmerry@its.jnj.com,,,,0
jmiles5@its.jnj.com,,,,0
jmillwa2@its.jnj.com,,,,10
jmoore27@its.jnj.com,,,,0
jmosur@its.jnj.com,,,,0
jnowosat@its.jnj.com,,,,20
jnussba1@its.jnj.com,,,,0
jnutting@its.jnj.com,,,,0
joh6@its.jnj.com,,,,0
johare@its.jnj.com,,,,0
joneil21@its.jnj.com,,,,0
jpatel31@its.jnj.com,,,,0
jpierso6@its.jnj.com,,,,0
jpope7@its.jnj.com,,,,0
jpopp@its.jnj.com,,,,0
jriccar1@its.jnj.com,,,,0
jruiz51@its.jnj.com,,,,0
jryan21@its.jnj.com,,,,0
jsandlin@its.jnj.com,,,,0
jschaff2@its.jnj.com,,,,0
jsheppel@its.jnj.com,,,,0
jsims1@its.jnj.com,,,,0
jsmit295@its.jnj.com,,,,0
jspain1@its.jnj.com,,,,0
jstarner@its.jnj.com,,,,0
jtaunton@its.jnj.com,,,,0
jthom133@its.jnj.com,,,,0
jtucker2@its.jnj.com,,,,0
jtutrow@its.jnj.com,,,,10
Julie.Scott@inventivhealth.com,,,,0
jvarin@its.jnj.com,,,,0
jwalke14@its.jnj.com,,,,0
jwerner1@its.jnj.com,,,,0
jwilde@its.jnj.com,,,,0
kbaldwi6@its.jnj.com,,,,10
kbowker@its.jnj.com,,,,0
kbragg@its.jnj.com,,,,20
kbrass1@its.jnj.com,,,,0
kbriggs5@its.jnj.com,,,,0
kbuczek@its.jnj.com,,,,0
kcarnaha@its.jnj.com,,,,0
kdaly5@its.jnj.com,,,,0
kduquesn@its.jnj.com,,,,0
kgelis@its.jnj.com,,,,20
kgillme1@its.jnj.com,,,,0
kgottsc1@its.jnj.com,,,,0
kgreenb2@its.jnj.com,,,,20
kgrubb1@its.jnj.com,,,,0
khagen1@its.jnj.com,,,,0
khamill1@its.jnj.com,,,,0
kheck@its.jnj.com,,,,0
kheden@its.jnj.com,,,,0
kheusink@its.jnj.com,,,,0
klewis30@its.jnj.com,,,,0
klobo1@its.jnj.com,,,,0
kmayers@its.jnj.com,,,,10
kmingus@its.jnj.com,,,,0
kmody8@its.jnj.com,,,,0
koforigy@its.jnj.com,,,,0
koneill6@its.jnj.com,,,,0
kperry8@its.jnj.com,,,,0
krober10@its.jnj.com,,,,0
kruth1@its.jnj.com,,,,0
kschellb@its.jnj.com,,,,0
kthomp47@its.jnj.com,,,,0
kvalitch@its.jnj.com,,,,0
kwiederh@its.jnj.com,,,,0
kwilli83@its.jnj.com,,,,0
kwinter1@its.jnj.com,,,,0
landrew9@its.jnj.com,,,,0
lanneke@its.jnj.com,,,,10
Laurie.York@inventivhealth.com,,,,0
lblevins@its.jnj.com,,,,0
lbroadri@its.jnj.com,,,,0
lcard1@its.jnj.com,,,,0
lcarreon@its.jnj.com,,,,0
lchattop@its.jnj.com,,,,0
ldebapti@its.jnj.com,,,,20
ldonald6@its.jnj.com,,,,20
lduque1@its.jnj.com,,,,0
lestrel1@its.jnj.com,,,,0
lfergus5@its.jnj.com,,,,0
lford2@its.jnj.com,,,,0
lgaultne@its.jnj.com,,,,0
lhidalg1@its.jnj.com,,,,0
lholling@its.jnj.com,,,,0
lhubbs@its.jnj.com,,,,0
ljames@its.jnj.com,,,,0
ljohnson@its.jnj.com,,,,0
lkinomot@its.jnj.com,,,,0
lnetzer@its.jnj.com,,,,0
lnodelma@its.jnj.com,,,,20
lpigg19@its.jnj.com,,,,10
lrober12@its.jnj.com,,,,0
lscutchf@its.jnj.com,,,,0
lslauson@its.jnj.com,,,,0
lsouza24@its.jnj.com,,,,0
lstone6@its.jnj.com,,,,0
ltaylor4@its.jnj.com,,,,0
ltorre66@its.jnj.com,,,,0
lwesley@its.jnj.com,,,,0
lzambell@its.jnj.com,,,,0
Manesha.Johnson@inventivhealth.com,,,,0
mblackpo@its.jnj.com,,,,0
mbrigha1@its.jnj.com,,,,20
mcamach9@its.jnj.com,,,,0
mcarrabi@its.jnj.com,,,,0
mcassano@its.jnj.com,,,,0
mcastrom@its.jnj.com,,,,0
mcayetan@its.jnj.com,,,,0
mcowing@its.jnj.com,,,,0
mcumbow@its.jnj.com,,,,0
Megan.Heins@inventivhealth.com,,,,0
mfasanel@its.jnj.com,,,,0
mfogelso@its.jnj.com,,,,0
mfrascel@its.jnj.com,,,,0
mgolden1@its.jnj.com,,,,0
mgreenb3@its.jnj.com,,,,0
mhallet@its.jnj.com,,,,10
mhannan@its.jnj.com,,,,0
mharkey@its.jnj.com,,,,0
mhasenbe@its.jnj.com,,,,0
mheckman@its.jnj.com,,,,0
mheir@its.jnj.com,,,,0
mhemenwa@its.jnj.com,,,,0
mhodgso1@its.jnj.com,,,,0
mjensenn@its.jnj.com,,,,0
mklein21@its.jnj.com,,,,0
mkoch2@its.jnj.com,,,,0
mkreisch@its.jnj.com,,,,10
mlima34@its.jnj.com,,,,0
mlohlein@its.jnj.com,,,,0
mmarano@its.jnj.com,,,,0
mmiles9@its.jnj.com,,,,0
mmuchow1@its.jnj.com,,,,0
MNguyen0@its.jnj.com,,,,0
modawebb@its.jnj.com,,,,10
mpaskoff@its.jnj.com,,,,0
mpiazza6@its.jnj.com,,,,0
mremling@its.jnj.com,,,,20
MREMOISS@ITS.JNJ.com,,,,10
mrodr299@its.jnj.com,,,,0
mromano2@its.jnj.com,,,,0
msaggese@its.jnj.com,,,,0
msandlin@its.jnj.com,,,,0
msevell1@its.jnj.com,,,,0
msnyder4@its.jnj.com,,,,0
msportel@its.jnj.com,,,,0
mtaggar1@its.jnj.com,,,,0
mthomso9@its.jnj.com,,,,0
mturk@its.jnj.com,,,,0
mursini1@its.jnj.com,,,,0
mvarlot2@its.jnj.com,,,,0
mwalsh34@its.jnj.com,,,,0
mwilso34@its.jnj.com,,,,0
myandal@its.jnj.com,,,,0
myang4@its.jnj.com,,,,0
Nadonna.Goldman@inventivhealth.com,,,,0
nbasham@its.jnj.com,,,,0
nheuser1@its.jnj.com,,,,10
nlewis23@its.jnj.com,,,,0
nmccorma@its.jnj.com,,,,0
nmuelle@its.jnj.com,,,,0
nrathod@its.jnj.com,,,,0
nsriniv1@its.jnj.com,,,,20
patrick.sheehan@inventivhealth.com,,,,0
pdipalma@its.jnj.com,,,,0
pduncan9@its.jnj.com,,,,0
pflach@its.jnj.com,,,,0
pflores4@its.jnj.com,,,,0
plebron4@its.jnj.com,,,,0
pmille37@its.jnj.com,,,,0
pohara3@its.jnj.com,,,,0
prasmuss@its.jnj.com,,,,0
proumy@its.jnj.com,,,,0
pstockho@its.jnj.com,,,,0
ptrainer@its.jnj.com,,,,0
pwaguesp@its.jnj.com,,,,0
pwickma1@its.jnj.com,,,,10
pwilli47@its.jnj.com,,,,0
qstracha@its.jnj.com,,,,0
Rachel.Pater@inventivhealth.com,,,,0
radhika.lopez@inventivhealth.com,,,,0
Radhika.Lopez@inventivhealth.com,,,,0
ranand9@its.jnj.com,,,,0
rbalsis9@its.jnj.com,,,,0
rbarnhil@its.jnj.com,,,,0
rbryant6@its.jnj.com,,,,0
rbryant6@its.jnj.com,,,,0
rbryant6@its.jnj.com,,,,0
rbulloc1@its.jnj.com,,,,0
rcannoy@its.jnj.com,,,,10
rcourtn2@its.jnj.com,,,,0
RDudla@its.jnj.com,,,,20
reisele@its.jnj.com,,,,0
rgreen1@its.jnj.com,,,,0
rgregory@its.jnj.com,,,,0
rkell@its.jnj.com,,,,0
rlangfor@its.jnj.com,,,,0
rmarti89@its.jnj.com,,,,0
rmead3@its.jnj.com,,,,0
rowens@its.jnj.com,,,,0
rpatel58@its.jnj.com,,,,0
rqureshi@its.jnj.com,,,,10
rsasvari@its.jnj.com,,,,0
rschelle@its.jnj.com,,,,20
rscoggin@its.jnj.com,,,,0
rthomas7@its.jnj.com,,,,0
rtorre29@its.jnj.com,,,,20
rtrived8@its.jnj.com,,,,20
rwiley2@its.jnj.com,,,,0
rwillar2@its.jnj.com,,,,0
rwittenb@its.jnj.com,,,,0
rwothers@its.jnj.com,,,,0
ryates2@its.jnj.com,,,,0
sbeck14@its.jnj.com,,,,0
sbennof@its.jnj.com,,,,0
sboese1@its.jnj.com,,,,0
sborgho1@its.jnj.com,,,,0
sbottone@its.jnj.com,,,,0
sbyrnes@its.jnj.com,,,,0
scolbert@its.jnj.com,,,,0
sfraser7@its.jnj.com,,,,0
sgairola@its.jnj.com,,,,0
sgalbra@its.jnj.com,,,,0
sgill14@its.jnj.com,,,,10
sglaab2@its.jnj.com,,,,0
sgratton@its.jnj.com,,,,0
sgriffi2@its.jnj.com,,,,0
sgroppen@its.jnj.com,,,,0
shall5@its.jnj.com,,,,0
SHARRI75@its.jnj.com,,,,0
sjenki17@its.jnj.com,,,,20
sjones34@its.jnj.com,,,,0
sjorda22@its.jnj.com,,,,0
sleona@its.jnj.com,,,,0
slin1@its.jnj.com,,,,0
slongend@its.jnj.com,,,,0
smccread@its.jnj.com,,,,10
smcknig1@its.jnj.com,,,,0
smesserl@its.jnj.com,,,,0
smontagu@its.jnj.com,,,,0
smoskos@its.jnj.com,,,,0
smueller@its.jnj.com,,,,0
snicho11@its.jnj.com,,,,20
spassala@its.jnj.com,,,,0
spatton@its.jnj.com,,,,0
spiskor@its.jnj.com,,,,0
srhodes2@its.jnj.com,,,,0
Ssaeger@its.jnj.com,,,,0
sschwei2@its.jnj.com,,,,0
sseller1@its.jnj.com,,,,0
sshadle@its.jnj.com,,,,0
sshelha1@its.jnj.com,,,,0
sshettl@its.jnj.com,,,,0
ssloan@its.jnj.com,,,,0
sspaldi@its.jnj.com,,,,0
sspinale@its.jnj.com,,,,0
sstreitm@its.jnj.com,,,,0
stheis@its.jnj.com,,,,0
sthoma15@its.jnj.com,,,,0
sthoma76@its.jnj.com,,,,0
stiev@its.jnj.com,,,,0
stomlin1@its.jnj.com,,,,0
svaught@its.jnj.com,,,,0
svoorhi@its.jnj.com,,,,0
sweiss7@its.jnj.com,,,,20
taksdal1@its.jnj.com,,,,0
tbarklag@its.jnj.com,,,,0
tbowling@its.jnj.com,,,,10
tclarke5@its.jnj.com,,,,0
tdalton2@its.jnj.com,,,,0
tdement2@its.jnj.com,,,,0
tdesilvi@its.jnj.com,,,,0
tdorante@its.jnj.com,,,,0
Teri.Burnell@xcenda.com,,,,0
test1,,,,0
test2,,,,0
tfragale@its.jnj.com,,,,0
tgrifkin@its.jnj.com,,,,0
thallam@its.jnj.com,,,,0
tharris3@its.jnj.com,,,,20
thoke@its.jnj.com,,,,0
thoops@its.jnj.com,,,,0
tlepage@its.jnj.com,,,,0
tleptich@its.jnj.com,,,,0
tmarzull@its.jnj.com,,,,0
tmccoy2@its.jnj.com,,,,0
tmcgint@its.jnj.com,,,,0
tmcsher5@its.jnj.com,,,,0
Tmuzsi@its.jnj.com,,,,0
trubenst@its.jnj.com,,,,0
tshaffer@its.jnj.com,,,,0
tstrasze@its.jnj.com,,,,0
twind@its.jnj.com,,,,0
tyou1@its.jnj.com,,,,10
vgarofa4@its.jnj.com,,,,0
Victoria.Martin@inventivhealth.com,,,,0
vlenahan@its.jnj.com,,,,0
vmacgre@its.jnj.com,,,,0
vshklyar@its.jnj.com,,,,20
wboggs@its.jnj.com,,,,10
wbrownin@its.jnj.com,,,,0
wjurosek@its.jnj.com,,,,0
wnolan2@its.jnj.com,,,,0
wpettitj@its.jnj.com,,,,0
wscruggs@its.jnj.com,,,,20
ychong5@its.jnj.com,,,,0
